<svg width="32" height="33" viewBox="0 0 32 33" fill="none" xmlns="http://www.w3.org/2000/svg">
<path d="M22.1852 32.7107H9.78925C4.39102 32.7107 0 28.2967 0 22.8702V10.4094C0 4.98286 4.39102 0.568848 9.78925 0.568848H22.1852C27.5834 0.568848 31.9744 4.98286 31.9744 10.4094V22.8702C31.9744 28.2967 27.5834 32.7107 22.1852 32.7107ZM9.78925 2.97683C5.71134 2.97683 2.39544 6.31009 2.39544 10.4094V22.8702C2.39544 26.9695 5.71134 30.3027 9.78925 30.3027H22.1852C26.2631 30.3027 29.579 26.9695 29.579 22.8702V10.4094C29.579 6.31009 26.2631 2.97683 22.1852 2.97683H9.78925Z" fill="white"/>
<path d="M15.9873 24.7701C11.5284 24.7701 7.89941 21.1221 7.89941 16.6398C7.89941 12.1575 11.5284 8.50952 15.9873 8.50952C20.4463 8.50952 24.0753 12.1575 24.0753 16.6398C24.0753 21.1221 20.4463 24.7701 15.9873 24.7701ZM15.9873 10.9744C12.8789 10.9744 10.3514 13.5151 10.3514 16.6398C10.3514 19.7645 12.8789 22.3052 15.9873 22.3052C19.0957 22.3052 21.6232 19.7645 21.6232 16.6398C21.6232 13.5151 19.0957 10.9744 15.9873 10.9744Z" fill="white"/>
<path d="M27.063 7.626C27.063 8.79397 26.1199 9.742 24.958 9.742C23.7961 9.742 22.853 8.79397 22.853 7.626C22.853 6.45804 23.7961 5.51001 24.958 5.51001C26.1199 5.51001 27.063 6.45424 27.063 7.626Z" fill="white"/>
</svg>
