<svg width="248" height="155" viewBox="0 0 248 155" fill="none" xmlns="http://www.w3.org/2000/svg">
<mask id="mask0_383_271" style="mask-type:alpha" maskUnits="userSpaceOnUse" x="0" y="0" width="248" height="155">
<rect width="248" height="154.714" rx="12" fill="#F2F2F0"/>
</mask>
<g mask="url(#mask0_383_271)">
<path d="M184.266 59L205.462 105.776L256.535 111.459L218.56 146.053L228.932 196.341L184.266 170.945L139.603 196.341L149.976 146.053L112 111.459L163.074 105.776L184.266 59Z" fill="#E5E6E0" stroke="#06232C" stroke-width="4" stroke-miterlimit="10" stroke-linejoin="bevel"/>
<path d="M184.266 59V133.842" stroke="#06232C" stroke-width="4" stroke-miterlimit="10" stroke-linejoin="bevel"/>
<path d="M139.603 196.341L184.266 133.842" stroke="#06232C" stroke-width="4" stroke-miterlimit="10" stroke-linejoin="bevel"/>
<path d="M228.932 196.341L184.266 133.842" stroke="#06232C" stroke-width="4" stroke-miterlimit="10" stroke-linejoin="bevel"/>
<path d="M256.535 111.459L184.266 133.842" stroke="#06232C" stroke-width="4" stroke-miterlimit="10" stroke-linejoin="bevel"/>
<path d="M112 111.459L184.266 133.842" stroke="#06232C" stroke-width="4" stroke-miterlimit="10" stroke-linejoin="bevel"/>
<path d="M184.266 170.945V133.842" stroke="#06232C" stroke-width="4" stroke-miterlimit="10" stroke-linejoin="bevel"/>
<path d="M161.937 104.647L184.266 133.842" stroke="#06232C" stroke-width="4" stroke-miterlimit="10" stroke-linejoin="bevel"/>
<path d="M205.461 105.777L184.266 133.842" stroke="#06232C" stroke-width="4" stroke-miterlimit="10" stroke-linejoin="bevel"/>
<path d="M149.976 146.053L184.266 133.842" stroke="#06232C" stroke-width="4" stroke-miterlimit="10" stroke-linejoin="bevel"/>
<path d="M218.56 146.053L184.266 133.842" stroke="#06232C" stroke-width="4" stroke-miterlimit="10" stroke-linejoin="bevel"/>
</g>
</svg>
