<svg width="26" height="35" viewBox="0 0 26 35" fill="none" xmlns="http://www.w3.org/2000/svg">
<g clip-path="url(#clip0_210_401)">
<path fill-rule="evenodd" clip-rule="evenodd" d="M2.07418 9.15516L0.920898 13.4205L15.4191 8.30226L8.99385 32.4422L17.8904 29.8831L25.6338 0.881104L2.07418 9.15516ZM8.91123 11.9701L3.06264 34.1484L7.51094 32.8691L13.5243 10.3498L8.91123 11.9701Z" fill="#0757A8"/>
</g>
<defs>
<clipPath id="clip0_210_401">
<rect width="24.7129" height="33.2673" fill="white" transform="translate(0.920898 0.881104)"/>
</clipPath>
</defs>
</svg>
