<svg width="72" height="20" viewBox="0 0 72 20" fill="none" xmlns="http://www.w3.org/2000/svg">
<g clip-path="url(#clip0_210_394)">
<path fill-rule="evenodd" clip-rule="evenodd" d="M0.514648 0.38623V18.1291L18.3428 0.38623H0.514648Z" fill="#92CFAE"/>
<path fill-rule="evenodd" clip-rule="evenodd" d="M1.7876 19.3962H19.6157V1.65332L1.7876 19.3962Z" fill="#2A8288"/>
<path fill-rule="evenodd" clip-rule="evenodd" d="M29.6295 9.47909C31.7022 9.47909 32.8043 8.46894 32.8043 6.58103V6.47387C32.8043 4.45359 31.65 3.65619 29.6295 3.65619H27.4776V9.47909H29.6295ZM23.2529 0.38623H29.734C34.2991 0.38623 36.8976 2.43331 36.8976 6.44866V6.55424C36.8976 10.5696 34.1423 12.4827 29.8654 12.4827H27.4776V19.3946H23.2529V0.38623Z" fill="black"/>
<path fill-rule="evenodd" clip-rule="evenodd" d="M45.306 16.1262C47.3408 16.1262 48.37 15.2216 48.37 13.4944V13.3873C48.37 11.6853 47.3408 10.7556 45.2031 10.7556H42.8343V16.1262H45.306ZM45.4612 19.3961H38.7173V0.38623H50.7135V3.73656H42.8628L42.8358 7.72355H45.5911C49.8379 7.72355 52.3619 9.61146 52.3619 13.4125V13.5197C52.3603 17.2419 50.0168 19.3961 45.4612 19.3961Z" fill="black"/>
<path fill-rule="evenodd" clip-rule="evenodd" d="M55.4287 0.413021H59.864V8.59029L66.7092 0.38623H71.4184L63.669 9.38611L71.8016 19.3961H66.6269L59.864 10.8737V19.3961H55.4287V0.413021Z" fill="black"/>
</g>
<defs>
<clipPath id="clip0_210_394">
<rect width="71.2871" height="19.0099" fill="white" transform="translate(0.514648 0.38623)"/>
</clipPath>
</defs>
</svg>
